// Jest Snapshot v1, https://goo.gl/fbAQLP

exports[`When given habit should render correctly 1`] = `
<Card>
  <CardContent>
    <Icon
      as="i"
      className="right floated"
      link={true}
      name="setting"
      onClick={[Function]}
    />
    <CardHeader>
      Exercise
    </CardHeader>
    <CardDescription>
      <Divider
        hidden={true}
      />
      <Label
        basic={true}
      >
         Duration: 
        <LabelDetail>
          5
           minutes
        </LabelDetail>
      </Label>
      <Label
        basic={true}
      >
         Cue: 
        Morning
         
      </Label>
    </CardDescription>
    <CardDescription />
  </CardContent>
  <CardContent
    extra={true}
  >
    <Toggle
      habit={
        Object {
          "createdAt": "2017-08-07T07:14:08.804Z",
          "cue": "Morning",
          "duration": 5,
          "habitName": "Exercise",
          "id": "13",
          "lastCompleted": "2017-09-20T04:35:22.545Z",
          "reward": null,
          "timesDoneSuccessively": null,
          "updatedAt": "2017-08-07T07:14:08.804Z",
        }
      }
    />
  </CardContent>
</Card>
`;
